…
print(boot_results)
```

    ## # A tibble: 5,000 × 2
    ##       r2 beta_ratio
    ##    <dbl>      <dbl>
    ##  1 0.936      -221.
    ##  2 0.941      -172.
    ##  3 0.939      -218.
    ##  4 0.942      -170.
    ##  5 0.939      -203.
    ##  6 0.940      -198.
    ##  7 0.944      -169.
    ##  8 0.939      -195.
    ##  9 0.940      -179.
    ## 10 0.945      -228.
    ## # ℹ 4,990 more rows
…
